{
    "admin": [
        {
            "type": "single",
            "slug": "view_admin_dashboard",
            "menus": {
                "label": "Dashboard",
                "icon": "home",
                "url": "admin"
            },
            "children": [],
            "subs": [
                "chart/list",
                "users/auth-by-user-id"
            ],
            "urls": [
                "home",
                "user/password",
                "settings/counties","settings/counties/list",
                "user/profile",
                "user/leaves",
                "user/leaves-details",
                "user/leaves-details/list",
                "user/profile-picture",
                "email/verify/",
                "admin/tickets","backends"
            ]
        },

        {
            "type": "single",
            "slug": "manage_staff",
            "menus": {
                "label": "Staffs",
                "icon": "user-check",
                "url": "admin/staffs"
            },
            "children": [],
            "subs": [
                "create", "list","staff/update-profile","staff/update-staff-state","staff/update-contacts","staff/update-statutorydocs","discharge"
            ],
            "urls": [
                "admin/settings/hrm/positions/list","admin/hrleaverequests/leaverequest/details","admin/hrleaverequests/staff/list","admin/settings/config/departments/roles/list"
            ]
        },

        {
            "type": "single",
            "slug": "view_users",
            "menus": {
                "label": "Users",
                "icon": "users",
                "url": "admin/users"
            },
            "children": [],
            "subs": [
                "users",
                "user/token",
                "import",
                "delete",
                "user",
                "user/update",
                "user/update-password",
                "list",
                "profile"
            ],
            "urls": ["admin/settings/config/departments/list"]
        },


        {
            "type": "single",
            "section": "main",
            "slug": "manage_user_permissions",
            "menus": {
                "label": "Permissions",
                "icon": "key",
                "url": "admin/permissiongroup"
            },
            "children": [],
            "subs": [
                "list",
                "permissions",
                "user",
                "view",
                "user/remove",
                "list/users","get/users"
            ],
            "urls": []
        },
        {
            "type": "many",
            "section": "main",
            "slug": "system_settings",
            "label": "Settings",
            "icon": "settings",
            "main": "admin/settings",
            "menus": [],
            "children": [
                {
                    "label": "Configuration",
                    "url": "admin/settings/config"
                },
                {
                    "label": "HRM Configs",
                    "url": "admin/settings/hrm"
                },
                {
                    "label": "Tickets",
                    "url": "admin/settings/tickets"
                }
            ],
            "subs": [
                "tickets/issuecategories","tickets/issuecategories/dispositions/ajax/get","tickets/issuecategories/list","tickets/branches","tickets/departments","tickets/departments","tickets/dispositions","tickets/dispositions/list",
                "tickets/issuesubcategories","tickets/issuesubcategories/list","tickets/statuses",
                "tickets/statuses/list","tickets/issuesources/list","tickets/issuesources","tickets/branches","tickets/branches/list","tickets/issuesubcategories", "tickets/issuecategories/issuesubcategories","tickets/issuecategories/issuesubcategories/save",
                "config/issuecategories/dispositions/save", "config/issuecategories/list","config/dispositions/list","config/issuecategories/dispositions/ajax/get","tickets/issuecategories/dispositions",
                "config/dispositions", "hrm/positions", "config/departments/heads/remove", "config/leavetypes", "config/leavetypes/list","hrm/positions/list","config/appraisalquestioncategories","config/appraisalquestioncategories/list","config/appraisalquestioncategories/delete","config/appraisalquestions","config/appraisalquestions/list","config/appraisalquestions/delete"
            ],
            "urls": [
                ""
            ]
        }
    ],
    "member":
    [
            {
                "type": "single",
                "slug": "member_dashboard",
                "menus": {
                    "label": "Dashboard",
                    "icon": "home",
                    "url": "member"
                },
                "children": [],
                "subs": [
                    "chart/list"
                ],
                "urls": [
                    "home",
                    "user/password",
                    "user/profile",
                    "user/leaves",
                    "user/profile-picture",
                    "email/verify/"
                ]
            },

        {
            "type": "single",
            "slug": "member_loans",
            "menus": {
                "label": "Payments",
                "icon": "home",
                "url": "member/payments"
            },
            "children": [],
            "subs": [
                "chart/list"
            ],
            "urls": [
                "home",
                "user/password",
                "user/profile",
                "user/leaves",
                "user/profile-picture",
                "email/verify/"
            ]
        },
        {
            "type": "single",
            "slug": "member_loans",
            "menus": {
                "label": "Loans",
                "icon": "home",
                "url": "member/loans"
            },
            "children": [],
            "subs": [
                "chart/list"
            ],
            "urls": [
                "home",
                "user/password",
                "user/profile",
                "user/leaves",
                "user/profile-picture",
                "email/verify/"
            ]
        }
    ],

    "guest": [
    ],
    "out": [
        {
            "slug": "guest_login",
            "type": "single",
            "menus": {
                "label": "Login",
                "icon": "zmdi-account",
                "url": "login"
            },
            "urls": [
                "logout",
                "user/status/online",
                "plan",
                "home",
                "register",
                "user/register",
                "user/login",
                "activate"
            ]
        },
        {
            "slug": "guest_register",
            "type": "single",
            "menus": {
                "label": "Register",
                "icon": "zmdi-account-add",
                "url": "register"
            }
        }
    ],
    "in": [
        {
            "slug": "guest_login",
            "type": "single",
            "menus": {
                "label": "Login",
                "icon": "zmdi-account",
                "url": "login"
            },
            "urls": [
                "logout",
                "user/password",
                "user/profile",
                "user/profile-picture",
                "email/verify/"
            ]
        }
    ]
}
